%YAML 1.1
%TAG !u! tag:unity3d.com,2011:
--- !u!74 &7400000
AnimationClip:
  m_ObjectHideFlags: 0
  m_CorrespondingSourceObject: {fileID: 0}
  m_PrefabInstance: {fileID: 0}
  m_PrefabAsset: {fileID: 0}
  m_Name: Idle
  serializedVersion: 6
  m_Legacy: 0
  m_Compressed: 0
  m_UseHighQualityCurve: 1
  m_RotationCurves: []
  m_CompressedRotationCurves: []
  m_EulerCurves: []
  m_PositionCurves: []
  m_ScaleCurves: []
  m_FloatCurves: []
  m_PPtrCurves:
  - curve:
    - time: 0
      value: {fileID: -6001912195754876329, guid: b54993c450fe7d04a9cee669775a03b6, type: 3}
    - time: 0.16666667
      value: {fileID: -7621771098838099175, guid: b54993c450fe7d04a9cee669775a03b6, type: 3}
    - time: 0.33333334
      value: {fileID: -3279547223448280677, guid: b54993c450fe7d04a9cee669775a03b6, type: 3}
    - time: 0.5
      value: {fileID: -3073639696261990981, guid: b54993c450fe7d04a9cee669775a03b6, type: 3}
    - time: 0.6666667
      value: {fileID: -1866782646828119142, guid: b54993c450fe7d04a9cee669775a03b6, type: 3}
    - time: 0.8333333
      value: {fileID: 3336801545530215161, guid: b54993c450fe7d04a9cee669775a03b6, type: 3}
    - time: 1
      value: {fileID: 7546328606591461070, guid: b54993c450fe7d04a9cee669775a03b6, type: 3}
    - time: 1.1666666
      value: {fileID: 3908795187360167734, guid: b54993c450fe7d04a9cee669775a03b6, type: 3}
    - time: 1.3333334
      value: {fileID: -7072352932211211680, guid: b54993c450fe7d04a9cee669775a03b6, type: 3}
    - time: 1.5
      value: {fileID: 7932025202667889225, guid: b54993c450fe7d04a9cee669775a03b6, type: 3}
    - time: 1.6666666
      value: {fileID: 7509035131530364864, guid: b54993c450fe7d04a9cee669775a03b6, type: 3}
    attribute: m_Sprite
    path: 
    classID: 212
    script: {fileID: 0}
  m_SampleRate: 60
  m_WrapMode: 0
  m_Bounds:
    m_Center: {x: 0, y: 0, z: 0}
    m_Extent: {x: 0, y: 0, z: 0}
  m_ClipBindingConstant:
    genericBindings:
    - serializedVersion: 2
      path: 0
      attribute: 0
      script: {fileID: 0}
      typeID: 212
      customType: 23
      isPPtrCurve: 1
    pptrCurveMapping:
    - {fileID: -6001912195754876329, guid: b54993c450fe7d04a9cee669775a03b6, type: 3}
    - {fileID: -7621771098838099175, guid: b54993c450fe7d04a9cee669775a03b6, type: 3}
    - {fileID: -3279547223448280677, guid: b54993c450fe7d04a9cee669775a03b6, type: 3}
    - {fileID: -3073639696261990981, guid: b54993c450fe7d04a9cee669775a03b6, type: 3}
    - {fileID: -1866782646828119142, guid: b54993c450fe7d04a9cee669775a03b6, type: 3}
    - {fileID: 3336801545530215161, guid: b54993c450fe7d04a9cee669775a03b6, type: 3}
    - {fileID: 7546328606591461070, guid: b54993c450fe7d04a9cee669775a03b6, type: 3}
    - {fileID: 3908795187360167734, guid: b54993c450fe7d04a9cee669775a03b6, type: 3}
    - {fileID: -7072352932211211680, guid: b54993c450fe7d04a9cee669775a03b6, type: 3}
    - {fileID: 7932025202667889225, guid: b54993c450fe7d04a9cee669775a03b6, type: 3}
    - {fileID: 7509035131530364864, guid: b54993c450fe7d04a9cee669775a03b6, type: 3}
  m_AnimationClipSettings:
    serializedVersion: 2
    m_AdditiveReferencePoseClip: {fileID: 0}
    m_AdditiveReferencePoseTime: 0
    m_StartTime: 0
    m_StopTime: 1.6833333
    m_OrientationOffsetY: 0
    m_Level: 0
    m_CycleOffset: 0
    m_HasAdditiveReferencePose: 0
    m_LoopTime: 1
    m_LoopBlend: 0
    m_LoopBlendOrientation: 0
    m_LoopBlendPositionY: 0
    m_LoopBlendPositionXZ: 0
    m_KeepOriginalOrientation: 0
    m_KeepOriginalPositionY: 1
    m_KeepOriginalPositionXZ: 0
    m_HeightFromFeet: 0
    m_Mirror: 0
  m_EditorCurves: []
  m_EulerEditorCurves: []
  m_HasGenericRootTransform: 0
  m_HasMotionFloatCurves: 0
  m_Events: []
