%YAML 1.1
%TAG !u! tag:unity3d.com,2011:
--- !u!29 &1
OcclusionCullingSettings:
  m_ObjectHideFlags: 0
  serializedVersion: 2
  m_OcclusionBakeSettings:
    smallestOccluder: 5
    smallestHole: 0.25
    backfaceThreshold: 100
  m_SceneGUID: 00000000000000000000000000000000
  m_OcclusionCullingData: {fileID: 0}
--- !u!104 &2
RenderSettings:
  m_ObjectHideFlags: 0
  serializedVersion: 9
  m_Fog: 0
  m_FogColor: {r: 0.5, g: 0.5, b: 0.5, a: 1}
  m_FogMode: 3
  m_FogDensity: 0.01
  m_LinearFogStart: 0
  m_LinearFogEnd: 300
  m_AmbientSkyColor: {r: 0.212, g: 0.227, b: 0.259, a: 1}
  m_AmbientEquatorColor: {r: 0.114, g: 0.125, b: 0.133, a: 1}
  m_AmbientGroundColor: {r: 0.047, g: 0.043, b: 0.035, a: 1}
  m_AmbientIntensity: 1
  m_AmbientMode: 3
  m_SubtractiveShadowColor: {r: 0.42, g: 0.478, b: 0.627, a: 1}
  m_SkyboxMaterial: {fileID: 0}
  m_HaloStrength: 0.5
  m_FlareStrength: 1
  m_FlareFadeSpeed: 3
  m_HaloTexture: {fileID: 0}
  m_SpotCookie: {fileID: 10001, guid: 0000000000000000e000000000000000, type: 0}
  m_DefaultReflectionMode: 0
  m_DefaultReflectionResolution: 128
  m_ReflectionBounces: 1
  m_ReflectionIntensity: 1
  m_CustomReflection: {fileID: 0}
  m_Sun: {fileID: 0}
  m_IndirectSpecularColor: {r: 0, g: 0, b: 0, a: 1}
  m_UseRadianceAmbientProbe: 0
--- !u!157 &3
LightmapSettings:
  m_ObjectHideFlags: 0
  serializedVersion: 12
  m_GIWorkflowMode: 1
  m_GISettings:
    serializedVersion: 2
    m_BounceScale: 1
    m_IndirectOutputScale: 1
    m_AlbedoBoost: 1
    m_EnvironmentLightingMode: 0
    m_EnableBakedLightmaps: 0
    m_EnableRealtimeLightmaps: 0
  m_LightmapEditorSettings:
    serializedVersion: 12
    m_Resolution: 2
    m_BakeResolution: 40
    m_AtlasSize: 1024
    m_AO: 0
    m_AOMaxDistance: 1
    m_CompAOExponent: 1
    m_CompAOExponentDirect: 0
    m_ExtractAmbientOcclusion: 0
    m_Padding: 2
    m_LightmapParameters: {fileID: 0}
    m_LightmapsBakeMode: 1
    m_TextureCompression: 1
    m_FinalGather: 0
    m_FinalGatherFiltering: 1
    m_FinalGatherRayCount: 256
    m_ReflectionCompression: 2
    m_MixedBakeMode: 2
    m_BakeBackend: 0
    m_PVRSampling: 1
    m_PVRDirectSampleCount: 32
    m_PVRSampleCount: 500
    m_PVRBounces: 2
    m_PVREnvironmentSampleCount: 500
    m_PVREnvironmentReferencePointCount: 2048
    m_PVRFilteringMode: 2
    m_PVRDenoiserTypeDirect: 0
    m_PVRDenoiserTypeIndirect: 0
    m_PVRDenoiserTypeAO: 0
    m_PVRFilterTypeDirect: 0
    m_PVRFilterTypeIndirect: 0
    m_PVRFilterTypeAO: 0
    m_PVREnvironmentMIS: 0
    m_PVRCulling: 1
    m_PVRFilteringGaussRadiusDirect: 1
    m_PVRFilteringGaussRadiusIndirect: 5
    m_PVRFilteringGaussRadiusAO: 2
    m_PVRFilteringAtrousPositionSigmaDirect: 0.5
    m_PVRFilteringAtrousPositionSigmaIndirect: 2
    m_PVRFilteringAtrousPositionSigmaAO: 1
    m_ExportTrainingData: 0
    m_TrainingDataDestination: TrainingData
    m_LightProbeSampleCountMultiplier: 4
  m_LightingDataAsset: {fileID: 0}
  m_LightingSettings: {fileID: 0}
--- !u!196 &4
NavMeshSettings:
  serializedVersion: 2
  m_ObjectHideFlags: 0
  m_BuildSettings:
    serializedVersion: 2
    agentTypeID: 0
    agentRadius: 0.5
    agentHeight: 2
    agentSlope: 45
    agentClimb: 0.4
    ledgeDropHeight: 0
    maxJumpAcrossDistance: 0
    minRegionArea: 2
    manualCellSize: 0
    cellSize: 0.16666667
    manualTileSize: 0
    tileSize: 256
    accuratePlacement: 0
    maxJobWorkers: 0
    preserveTilesOutsideBounds: 0
    debug:
      m_Flags: 0
  m_NavMeshData: {fileID: 0}
--- !u!1001 &540467757
PrefabInstance:
  m_ObjectHideFlags: 0
  serializedVersion: 2
  m_Modification:
    m_TransformParent: {fileID: 0}
    m_Modifications:
    - target: {fileID: 185972935403632826, guid: 026e77ce518f7469d9eb17ac40bf23bc, type: 3}
      propertyPath: m_RootOrder
      value: 1
      objectReference: {fileID: 0}
    - target: {fileID: 185972935403632826, guid: 026e77ce518f7469d9eb17ac40bf23bc, type: 3}
      propertyPath: m_LocalPosition.x
      value: -32.1501
      objectReference: {fileID: 0}
    - target: {fileID: 185972935403632826, guid: 026e77ce518f7469d9eb17ac40bf23bc, type: 3}
      propertyPath: m_LocalPosition.y
      value: -1.3589725
      objectReference: {fileID: 0}
    - target: {fileID: 185972935403632826, guid: 026e77ce518f7469d9eb17ac40bf23bc, type: 3}
      propertyPath: m_LocalPosition.z
      value: 0
      objectReference: {fileID: 0}
    - target: {fileID: 185972935403632826, guid: 026e77ce518f7469d9eb17ac40bf23bc, type: 3}
      propertyPath: m_LocalRotation.w
      value: 1
      objectReference: {fileID: 0}
    - target: {fileID: 185972935403632826, guid: 026e77ce518f7469d9eb17ac40bf23bc, type: 3}
      propertyPath: m_LocalRotation.x
      value: 0
      objectReference: {fileID: 0}
    - target: {fileID: 185972935403632826, guid: 026e77ce518f7469d9eb17ac40bf23bc, type: 3}
      propertyPath: m_LocalRotation.y
      value: 0
      objectReference: {fileID: 0}
    - target: {fileID: 185972935403632826, guid: 026e77ce518f7469d9eb17ac40bf23bc, type: 3}
      propertyPath: m_LocalRotation.z
      value: 0
      objectReference: {fileID: 0}
    - target: {fileID: 185972935403632826, guid: 026e77ce518f7469d9eb17ac40bf23bc, type: 3}
      propertyPath: m_LocalEulerAnglesHint.x
      value: 0
      objectReference: {fileID: 0}
    - target: {fileID: 185972935403632826, guid: 026e77ce518f7469d9eb17ac40bf23bc, type: 3}
      propertyPath: m_LocalEulerAnglesHint.y
      value: 0
      objectReference: {fileID: 0}
    - target: {fileID: 185972935403632826, guid: 026e77ce518f7469d9eb17ac40bf23bc, type: 3}
      propertyPath: m_LocalEulerAnglesHint.z
      value: 0
      objectReference: {fileID: 0}
    - target: {fileID: 367899075245754278, guid: 026e77ce518f7469d9eb17ac40bf23bc, type: 3}
      propertyPath: m_Name
      value: Item
      objectReference: {fileID: 0}
    m_RemovedComponents: []
  m_SourcePrefab: {fileID: 100100000, guid: 026e77ce518f7469d9eb17ac40bf23bc, type: 3}
--- !u!1001 &755622735
PrefabInstance:
  m_ObjectHideFlags: 0
  serializedVersion: 2
  m_Modification:
    m_TransformParent: {fileID: 0}
    m_Modifications:
    - target: {fileID: 185972935403632826, guid: 026e77ce518f7469d9eb17ac40bf23bc, type: 3}
      propertyPath: m_RootOrder
      value: 5
      objectReference: {fileID: 0}
    - target: {fileID: 185972935403632826, guid: 026e77ce518f7469d9eb17ac40bf23bc, type: 3}
      propertyPath: m_LocalPosition.x
      value: 8.1
      objectReference: {fileID: 0}
    - target: {fileID: 185972935403632826, guid: 026e77ce518f7469d9eb17ac40bf23bc, type: 3}
      propertyPath: m_LocalPosition.y
      value: -1.7
      objectReference: {fileID: 0}
    - target: {fileID: 185972935403632826, guid: 026e77ce518f7469d9eb17ac40bf23bc, type: 3}
      propertyPath: m_LocalPosition.z
      value: 0
      objectReference: {fileID: 0}
    - target: {fileID: 185972935403632826, guid: 026e77ce518f7469d9eb17ac40bf23bc, type: 3}
      propertyPath: m_LocalRotation.w
      value: 1
      objectReference: {fileID: 0}
    - target: {fileID: 185972935403632826, guid: 026e77ce518f7469d9eb17ac40bf23bc, type: 3}
      propertyPath: m_LocalRotation.x
      value: 0
      objectReference: {fileID: 0}
    - target: {fileID: 185972935403632826, guid: 026e77ce518f7469d9eb17ac40bf23bc, type: 3}
      propertyPath: m_LocalRotation.y
      value: 0
      objectReference: {fileID: 0}
    - target: {fileID: 185972935403632826, guid: 026e77ce518f7469d9eb17ac40bf23bc, type: 3}
      propertyPath: m_LocalRotation.z
      value: 0
      objectReference: {fileID: 0}
    - target: {fileID: 185972935403632826, guid: 026e77ce518f7469d9eb17ac40bf23bc, type: 3}
      propertyPath: m_LocalEulerAnglesHint.x
      value: 0
      objectReference: {fileID: 0}
    - target: {fileID: 185972935403632826, guid: 026e77ce518f7469d9eb17ac40bf23bc, type: 3}
      propertyPath: m_LocalEulerAnglesHint.y
      value: 0
      objectReference: {fileID: 0}
    - target: {fileID: 185972935403632826, guid: 026e77ce518f7469d9eb17ac40bf23bc, type: 3}
      propertyPath: m_LocalEulerAnglesHint.z
      value: 0
      objectReference: {fileID: 0}
    - target: {fileID: 367899075245754278, guid: 026e77ce518f7469d9eb17ac40bf23bc, type: 3}
      propertyPath: m_Name
      value: Item (1)
      objectReference: {fileID: 0}
    m_RemovedComponents: []
  m_SourcePrefab: {fileID: 100100000, guid: 026e77ce518f7469d9eb17ac40bf23bc, type: 3}
--- !u!114 &828689233 stripped
MonoBehaviour:
  m_CorrespondingSourceObject: {fileID: 4131540665047583327, guid: c21f3eb5dd9285e429bf3d15c1be4e50, type: 3}
  m_PrefabInstance: {fileID: 1383052039}
  m_PrefabAsset: {fileID: 0}
  m_GameObject: {fileID: 0}
  m_Enabled: 1
  m_EditorHideFlags: 0
  m_Script: {fileID: 11500000, guid: 4a48578ad3538432daea2b8b5d6aa2e6, type: 3}
  m_Name: 
  m_EditorClassIdentifier: 
--- !u!1001 &930133280
PrefabInstance:
  m_ObjectHideFlags: 0
  serializedVersion: 2
  m_Modification:
    m_TransformParent: {fileID: 0}
    m_Modifications:
    - target: {fileID: 185972935403632826, guid: 026e77ce518f7469d9eb17ac40bf23bc, type: 3}
      propertyPath: m_RootOrder
      value: 7
      objectReference: {fileID: 0}
    - target: {fileID: 185972935403632826, guid: 026e77ce518f7469d9eb17ac40bf23bc, type: 3}
      propertyPath: m_LocalPosition.x
      value: 10.27
      objectReference: {fileID: 0}
    - target: {fileID: 185972935403632826, guid: 026e77ce518f7469d9eb17ac40bf23bc, type: 3}
      propertyPath: m_LocalPosition.y
      value: -0.57
      objectReference: {fileID: 0}
    - target: {fileID: 185972935403632826, guid: 026e77ce518f7469d9eb17ac40bf23bc, type: 3}
      propertyPath: m_LocalPosition.z
      value: 0
      objectReference: {fileID: 0}
    - target: {fileID: 185972935403632826, guid: 026e77ce518f7469d9eb17ac40bf23bc, type: 3}
      propertyPath: m_LocalRotation.w
      value: 1
      objectReference: {fileID: 0}
    - target: {fileID: 185972935403632826, guid: 026e77ce518f7469d9eb17ac40bf23bc, type: 3}
      propertyPath: m_LocalRotation.x
      value: 0
      objectReference: {fileID: 0}
    - target: {fileID: 185972935403632826, guid: 026e77ce518f7469d9eb17ac40bf23bc, type: 3}
      propertyPath: m_LocalRotation.y
      value: 0
      objectReference: {fileID: 0}
    - target: {fileID: 185972935403632826, guid: 026e77ce518f7469d9eb17ac40bf23bc, type: 3}
      propertyPath: m_LocalRotation.z
      value: 0
      objectReference: {fileID: 0}
    - target: {fileID: 185972935403632826, guid: 026e77ce518f7469d9eb17ac40bf23bc, type: 3}
      propertyPath: m_LocalEulerAnglesHint.x
      value: 0
      objectReference: {fileID: 0}
    - target: {fileID: 185972935403632826, guid: 026e77ce518f7469d9eb17ac40bf23bc, type: 3}
      propertyPath: m_LocalEulerAnglesHint.y
      value: 0
      objectReference: {fileID: 0}
    - target: {fileID: 185972935403632826, guid: 026e77ce518f7469d9eb17ac40bf23bc, type: 3}
      propertyPath: m_LocalEulerAnglesHint.z
      value: 0
      objectReference: {fileID: 0}
    - target: {fileID: 367899075245754278, guid: 026e77ce518f7469d9eb17ac40bf23bc, type: 3}
      propertyPath: m_Name
      value: Item (3)
      objectReference: {fileID: 0}
    m_RemovedComponents: []
  m_SourcePrefab: {fileID: 100100000, guid: 026e77ce518f7469d9eb17ac40bf23bc, type: 3}
--- !u!1001 &1217712289
PrefabInstance:
  m_ObjectHideFlags: 0
  serializedVersion: 2
  m_Modification:
    m_TransformParent: {fileID: 0}
    m_Modifications:
    - target: {fileID: 656862289440681091, guid: 5ff6edd8fb3cb56419fe8d8ec960b289, type: 3}
      propertyPath: m_Pivot.x
      value: 0
      objectReference: {fileID: 0}
    - target: {fileID: 656862289440681091, guid: 5ff6edd8fb3cb56419fe8d8ec960b289, type: 3}
      propertyPath: m_Pivot.y
      value: 0
      objectReference: {fileID: 0}
    - target: {fileID: 656862289440681091, guid: 5ff6edd8fb3cb56419fe8d8ec960b289, type: 3}
      propertyPath: m_RootOrder
      value: 3
      objectReference: {fileID: 0}
    - target: {fileID: 656862289440681091, guid: 5ff6edd8fb3cb56419fe8d8ec960b289, type: 3}
      propertyPath: m_AnchorMax.x
      value: 0
      objectReference: {fileID: 0}
    - target: {fileID: 656862289440681091, guid: 5ff6edd8fb3cb56419fe8d8ec960b289, type: 3}
      propertyPath: m_AnchorMax.y
      value: 0
      objectReference: {fileID: 0}
    - target: {fileID: 656862289440681091, guid: 5ff6edd8fb3cb56419fe8d8ec960b289, type: 3}
      propertyPath: m_AnchorMin.x
      value: 0
      objectReference: {fileID: 0}
    - target: {fileID: 656862289440681091, guid: 5ff6edd8fb3cb56419fe8d8ec960b289, type: 3}
      propertyPath: m_AnchorMin.y
      value: 0
      objectReference: {fileID: 0}
    - target: {fileID: 656862289440681091, guid: 5ff6edd8fb3cb56419fe8d8ec960b289, type: 3}
      propertyPath: m_SizeDelta.x
      value: 0
      objectReference: {fileID: 0}
    - target: {fileID: 656862289440681091, guid: 5ff6edd8fb3cb56419fe8d8ec960b289, type: 3}
      propertyPath: m_SizeDelta.y
      value: 0
      objectReference: {fileID: 0}
    - target: {fileID: 656862289440681091, guid: 5ff6edd8fb3cb56419fe8d8ec960b289, type: 3}
      propertyPath: m_LocalPosition.x
      value: 0
      objectReference: {fileID: 0}
    - target: {fileID: 656862289440681091, guid: 5ff6edd8fb3cb56419fe8d8ec960b289, type: 3}
      propertyPath: m_LocalPosition.y
      value: 0
      objectReference: {fileID: 0}
    - target: {fileID: 656862289440681091, guid: 5ff6edd8fb3cb56419fe8d8ec960b289, type: 3}
      propertyPath: m_LocalPosition.z
      value: 0
      objectReference: {fileID: 0}
    - target: {fileID: 656862289440681091, guid: 5ff6edd8fb3cb56419fe8d8ec960b289, type: 3}
      propertyPath: m_LocalRotation.w
      value: 1
      objectReference: {fileID: 0}
    - target: {fileID: 656862289440681091, guid: 5ff6edd8fb3cb56419fe8d8ec960b289, type: 3}
      propertyPath: m_LocalRotation.x
      value: 0
      objectReference: {fileID: 0}
    - target: {fileID: 656862289440681091, guid: 5ff6edd8fb3cb56419fe8d8ec960b289, type: 3}
      propertyPath: m_LocalRotation.y
      value: 0
      objectReference: {fileID: 0}
    - target: {fileID: 656862289440681091, guid: 5ff6edd8fb3cb56419fe8d8ec960b289, type: 3}
      propertyPath: m_LocalRotation.z
      value: 0
      objectReference: {fileID: 0}
    - target: {fileID: 656862289440681091, guid: 5ff6edd8fb3cb56419fe8d8ec960b289, type: 3}
      propertyPath: m_AnchoredPosition.x
      value: 0
      objectReference: {fileID: 0}
    - target: {fileID: 656862289440681091, guid: 5ff6edd8fb3cb56419fe8d8ec960b289, type: 3}
      propertyPath: m_AnchoredPosition.y
      value: 0
      objectReference: {fileID: 0}
    - target: {fileID: 656862289440681091, guid: 5ff6edd8fb3cb56419fe8d8ec960b289, type: 3}
      propertyPath: m_LocalEulerAnglesHint.x
      value: 0
      objectReference: {fileID: 0}
    - target: {fileID: 656862289440681091, guid: 5ff6edd8fb3cb56419fe8d8ec960b289, type: 3}
      propertyPath: m_LocalEulerAnglesHint.y
      value: 0
      objectReference: {fileID: 0}
    - target: {fileID: 656862289440681091, guid: 5ff6edd8fb3cb56419fe8d8ec960b289, type: 3}
      propertyPath: m_LocalEulerAnglesHint.z
      value: 0
      objectReference: {fileID: 0}
    - target: {fileID: 656862289440681119, guid: 5ff6edd8fb3cb56419fe8d8ec960b289, type: 3}
      propertyPath: m_Name
      value: Pause
      objectReference: {fileID: 0}
    - target: {fileID: 2964433256844358124, guid: 5ff6edd8fb3cb56419fe8d8ec960b289, type: 3}
      propertyPath: inventoryController
      value: 
      objectReference: {fileID: 828689233}
    m_RemovedComponents: []
  m_SourcePrefab: {fileID: 100100000, guid: 5ff6edd8fb3cb56419fe8d8ec960b289, type: 3}
--- !u!1001 &1383052039
PrefabInstance:
  m_ObjectHideFlags: 0
  serializedVersion: 2
  m_Modification:
    m_TransformParent: {fileID: 0}
    m_Modifications:
    - target: {fileID: 7572431691450020395, guid: c21f3eb5dd9285e429bf3d15c1be4e50, type: 3}
      propertyPath: m_RootOrder
      value: 2
      objectReference: {fileID: 0}
    - target: {fileID: 7572431691450020395, guid: c21f3eb5dd9285e429bf3d15c1be4e50, type: 3}
      propertyPath: m_LocalPosition.x
      value: 0.65335757
      objectReference: {fileID: 0}
    - target: {fileID: 7572431691450020395, guid: c21f3eb5dd9285e429bf3d15c1be4e50, type: 3}
      propertyPath: m_LocalPosition.y
      value: 0.09074411
      objectReference: {fileID: 0}
    - target: {fileID: 7572431691450020395, guid: c21f3eb5dd9285e429bf3d15c1be4e50, type: 3}
      propertyPath: m_LocalPosition.z
      value: 0
      objectReference: {fileID: 0}
    - target: {fileID: 7572431691450020395, guid: c21f3eb5dd9285e429bf3d15c1be4e50, type: 3}
      propertyPath: m_LocalRotation.w
      value: 1
      objectReference: {fileID: 0}
    - target: {fileID: 7572431691450020395, guid: c21f3eb5dd9285e429bf3d15c1be4e50, type: 3}
      propertyPath: m_LocalRotation.x
      value: 0
      objectReference: {fileID: 0}
    - target: {fileID: 7572431691450020395, guid: c21f3eb5dd9285e429bf3d15c1be4e50, type: 3}
      propertyPath: m_LocalRotation.y
      value: 0
      objectReference: {fileID: 0}
    - target: {fileID: 7572431691450020395, guid: c21f3eb5dd9285e429bf3d15c1be4e50, type: 3}
      propertyPath: m_LocalRotation.z
      value: 0
      objectReference: {fileID: 0}
    - target: {fileID: 7572431691450020395, guid: c21f3eb5dd9285e429bf3d15c1be4e50, type: 3}
      propertyPath: m_LocalEulerAnglesHint.x
      value: 0
      objectReference: {fileID: 0}
    - target: {fileID: 7572431691450020395, guid: c21f3eb5dd9285e429bf3d15c1be4e50, type: 3}
      propertyPath: m_LocalEulerAnglesHint.y
      value: 0
      objectReference: {fileID: 0}
    - target: {fileID: 7572431691450020395, guid: c21f3eb5dd9285e429bf3d15c1be4e50, type: 3}
      propertyPath: m_LocalEulerAnglesHint.z
      value: 0
      objectReference: {fileID: 0}
    - target: {fileID: 7572431691450020399, guid: c21f3eb5dd9285e429bf3d15c1be4e50, type: 3}
      propertyPath: m_Name
      value: 'Player '
      objectReference: {fileID: 0}
    m_RemovedComponents: []
  m_SourcePrefab: {fileID: 100100000, guid: c21f3eb5dd9285e429bf3d15c1be4e50, type: 3}
--- !u!1001 &1855813978
PrefabInstance:
  m_ObjectHideFlags: 0
  serializedVersion: 2
  m_Modification:
    m_TransformParent: {fileID: 0}
    m_Modifications:
    - target: {fileID: 185972935403632826, guid: 026e77ce518f7469d9eb17ac40bf23bc, type: 3}
      propertyPath: m_RootOrder
      value: 6
      objectReference: {fileID: 0}
    - target: {fileID: 185972935403632826, guid: 026e77ce518f7469d9eb17ac40bf23bc, type: 3}
      propertyPath: m_LocalPosition.x
      value: 4.52
      objectReference: {fileID: 0}
    - target: {fileID: 185972935403632826, guid: 026e77ce518f7469d9eb17ac40bf23bc, type: 3}
      propertyPath: m_LocalPosition.y
      value: -1.32
      objectReference: {fileID: 0}
    - target: {fileID: 185972935403632826, guid: 026e77ce518f7469d9eb17ac40bf23bc, type: 3}
      propertyPath: m_LocalPosition.z
      value: 0
      objectReference: {fileID: 0}
    - target: {fileID: 185972935403632826, guid: 026e77ce518f7469d9eb17ac40bf23bc, type: 3}
      propertyPath: m_LocalRotation.w
      value: 1
      objectReference: {fileID: 0}
    - target: {fileID: 185972935403632826, guid: 026e77ce518f7469d9eb17ac40bf23bc, type: 3}
      propertyPath: m_LocalRotation.x
      value: 0
      objectReference: {fileID: 0}
    - target: {fileID: 185972935403632826, guid: 026e77ce518f7469d9eb17ac40bf23bc, type: 3}
      propertyPath: m_LocalRotation.y
      value: 0
      objectReference: {fileID: 0}
    - target: {fileID: 185972935403632826, guid: 026e77ce518f7469d9eb17ac40bf23bc, type: 3}
      propertyPath: m_LocalRotation.z
      value: 0
      objectReference: {fileID: 0}
    - target: {fileID: 185972935403632826, guid: 026e77ce518f7469d9eb17ac40bf23bc, type: 3}
      propertyPath: m_LocalEulerAnglesHint.x
      value: 0
      objectReference: {fileID: 0}
    - target: {fileID: 185972935403632826, guid: 026e77ce518f7469d9eb17ac40bf23bc, type: 3}
      propertyPath: m_LocalEulerAnglesHint.y
      value: 0
      objectReference: {fileID: 0}
    - target: {fileID: 185972935403632826, guid: 026e77ce518f7469d9eb17ac40bf23bc, type: 3}
      propertyPath: m_LocalEulerAnglesHint.z
      value: 0
      objectReference: {fileID: 0}
    - target: {fileID: 367899075245754278, guid: 026e77ce518f7469d9eb17ac40bf23bc, type: 3}
      propertyPath: m_Name
      value: Item (2)
      objectReference: {fileID: 0}
    m_RemovedComponents: []
  m_SourcePrefab: {fileID: 100100000, guid: 026e77ce518f7469d9eb17ac40bf23bc, type: 3}
--- !u!1001 &4210048280529924096
PrefabInstance:
  m_ObjectHideFlags: 0
  serializedVersion: 2
  m_Modification:
    m_TransformParent: {fileID: 0}
    m_Modifications:
    - target: {fileID: 1610170538, guid: 054b798bf282f524281c5e07fa146458, type: 3}
      propertyPath: m_audioClip
      value: 
      objectReference: {fileID: 8300000, guid: bc37240a618946545acff1427299a104, type: 3}
    - target: {fileID: 600566934302193847, guid: 054b798bf282f524281c5e07fa146458, type: 3}
      propertyPath: serializationData.Prefab
      value: 
      objectReference: {fileID: 600566934302193847, guid: 054b798bf282f524281c5e07fa146458, type: 3}
    - target: {fileID: 624531530894488562, guid: 054b798bf282f524281c5e07fa146458, type: 3}
      propertyPath: serializationData.Prefab
      value: 
      objectReference: {fileID: 624531530894488562, guid: 054b798bf282f524281c5e07fa146458, type: 3}
    - target: {fileID: 2077673390751313929, guid: 054b798bf282f524281c5e07fa146458, type: 3}
      propertyPath: m_RootOrder
      value: 0
      objectReference: {fileID: 0}
    - target: {fileID: 2077673390751313929, guid: 054b798bf282f524281c5e07fa146458, type: 3}
      propertyPath: m_LocalPosition.x
      value: 0
      objectReference: {fileID: 0}
    - target: {fileID: 2077673390751313929, guid: 054b798bf282f524281c5e07fa146458, type: 3}
      propertyPath: m_LocalPosition.y
      value: 0
      objectReference: {fileID: 0}
    - target: {fileID: 2077673390751313929, guid: 054b798bf282f524281c5e07fa146458, type: 3}
      propertyPath: m_LocalPosition.z
      value: 0
      objectReference: {fileID: 0}
    - target: {fileID: 2077673390751313929, guid: 054b798bf282f524281c5e07fa146458, type: 3}
      propertyPath: m_LocalRotation.w
      value: 1
      objectReference: {fileID: 0}
    - target: {fileID: 2077673390751313929, guid: 054b798bf282f524281c5e07fa146458, type: 3}
      propertyPath: m_LocalRotation.x
      value: 0
      objectReference: {fileID: 0}
    - target: {fileID: 2077673390751313929, guid: 054b798bf282f524281c5e07fa146458, type: 3}
      propertyPath: m_LocalRotation.y
      value: 0
      objectReference: {fileID: 0}
    - target: {fileID: 2077673390751313929, guid: 054b798bf282f524281c5e07fa146458, type: 3}
      propertyPath: m_LocalRotation.z
      value: 0
      objectReference: {fileID: 0}
    - target: {fileID: 2077673390751313929, guid: 054b798bf282f524281c5e07fa146458, type: 3}
      propertyPath: m_LocalEulerAnglesHint.x
      value: 0
      objectReference: {fileID: 0}
    - target: {fileID: 2077673390751313929, guid: 054b798bf282f524281c5e07fa146458, type: 3}
      propertyPath: m_LocalEulerAnglesHint.y
      value: 0
      objectReference: {fileID: 0}
    - target: {fileID: 2077673390751313929, guid: 054b798bf282f524281c5e07fa146458, type: 3}
      propertyPath: m_LocalEulerAnglesHint.z
      value: 0
      objectReference: {fileID: 0}
    - target: {fileID: 4941523311076685417, guid: 054b798bf282f524281c5e07fa146458, type: 3}
      propertyPath: serializationData.Prefab
      value: 
      objectReference: {fileID: 4941523311076685417, guid: 054b798bf282f524281c5e07fa146458, type: 3}
    - target: {fileID: 5623885273668669355, guid: 054b798bf282f524281c5e07fa146458, type: 3}
      propertyPath: m_Name
      value: Game Basics
      objectReference: {fileID: 0}
    m_RemovedComponents: []
  m_SourcePrefab: {fileID: 100100000, guid: 054b798bf282f524281c5e07fa146458, type: 3}
--- !u!1001 &8405664645544599120
PrefabInstance:
  m_ObjectHideFlags: 0
  serializedVersion: 2
  m_Modification:
    m_TransformParent: {fileID: 0}
    m_Modifications:
    - target: {fileID: 1740452436196507867, guid: 2fd2b7a84e3f44f2281c651fec20c569, type: 3}
      propertyPath: m_Name
      value: Base
      objectReference: {fileID: 0}
    - target: {fileID: 1873628173556480086, guid: 2fd2b7a84e3f44f2281c651fec20c569, type: 3}
      propertyPath: m_RootOrder
      value: 4
      objectReference: {fileID: 0}
    - target: {fileID: 1873628173556480086, guid: 2fd2b7a84e3f44f2281c651fec20c569, type: 3}
      propertyPath: m_LocalPosition.x
      value: 2.6509068
      objectReference: {fileID: 0}
    - target: {fileID: 1873628173556480086, guid: 2fd2b7a84e3f44f2281c651fec20c569, type: 3}
      propertyPath: m_LocalPosition.y
      value: 9.806867
      objectReference: {fileID: 0}
    - target: {fileID: 1873628173556480086, guid: 2fd2b7a84e3f44f2281c651fec20c569, type: 3}
      propertyPath: m_LocalPosition.z
      value: -165.31532
      objectReference: {fileID: 0}
    - target: {fileID: 1873628173556480086, guid: 2fd2b7a84e3f44f2281c651fec20c569, type: 3}
      propertyPath: m_LocalRotation.w
      value: 1
      objectReference: {fileID: 0}
    - target: {fileID: 1873628173556480086, guid: 2fd2b7a84e3f44f2281c651fec20c569, type: 3}
      propertyPath: m_LocalRotation.x
      value: 0
      objectReference: {fileID: 0}
    - target: {fileID: 1873628173556480086, guid: 2fd2b7a84e3f44f2281c651fec20c569, type: 3}
      propertyPath: m_LocalRotation.y
      value: 0
      objectReference: {fileID: 0}
    - target: {fileID: 1873628173556480086, guid: 2fd2b7a84e3f44f2281c651fec20c569, type: 3}
      propertyPath: m_LocalRotation.z
      value: 0
      objectReference: {fileID: 0}
    - target: {fileID: 1873628173556480086, guid: 2fd2b7a84e3f44f2281c651fec20c569, type: 3}
      propertyPath: m_LocalEulerAnglesHint.x
      value: 0
      objectReference: {fileID: 0}
    - target: {fileID: 1873628173556480086, guid: 2fd2b7a84e3f44f2281c651fec20c569, type: 3}
      propertyPath: m_LocalEulerAnglesHint.y
      value: 0
      objectReference: {fileID: 0}
    - target: {fileID: 1873628173556480086, guid: 2fd2b7a84e3f44f2281c651fec20c569, type: 3}
      propertyPath: m_LocalEulerAnglesHint.z
      value: 0
      objectReference: {fileID: 0}
    m_RemovedComponents: []
  m_SourcePrefab: {fileID: 100100000, guid: 2fd2b7a84e3f44f2281c651fec20c569, type: 3}
