%YAML 1.1
%TAG !u! tag:unity3d.com,2011:
--- !u!114 &11400000
MonoBehaviour:
  m_ObjectHideFlags: 0
  m_CorrespondingSourceObject: {fileID: 0}
  m_PrefabInstance: {fileID: 0}
  m_PrefabAsset: {fileID: 0}
  m_GameObject: {fileID: 0}
  m_Enabled: 1
  m_EditorHideFlags: 0
  m_Script: {fileID: 11500000, guid: d999bb5045ab4a71a3596b35a76aa0e5, type: 3}
  m_Name: WalkingGuard
  m_EditorClassIdentifier: 
  Grounded: 2
  Falling: 0
  Airborn: 0
  Jumping: 0
  OnWall: 0
  OnLeftWall: 0
  OnRightWall: 0
  Scared: 0
  WallSliding: 1
  WallSlidingDown: 0
  WallClimbing: 0
  WallClamping: 0
  Walking: 0
  Interacting: 0
