%YAML 1.1
%TAG !u! tag:unity3d.com,2011:
--- !u!114 &11400000
MonoBehaviour:
  m_ObjectHideFlags: 0
  m_CorrespondingSourceObject: {fileID: 0}
  m_PrefabInstance: {fileID: 0}
  m_PrefabAsset: {fileID: 0}
  m_GameObject: {fileID: 0}
  m_Enabled: 1
  m_EditorHideFlags: 0
  m_Script: {fileID: 11500000, guid: 48cb235c2c2d14e41a19073fee139e0c, type: 3}
  m_Name: SpringyXYZ_MoveToTarget
  m_EditorClassIdentifier: 
  XPidSettings: {fileID: 11400000, guid: ef5967a51d645634e9103d630baaaad7, type: 2}
  YPidSettings: {fileID: 11400000, guid: ef5967a51d645634e9103d630baaaad7, type: 2}
  ZPidSetttings: {fileID: 11400000, guid: ef5967a51d645634e9103d630baaaad7, type: 2}
