%YAML 1.1
%TAG !u! tag:unity3d.com,2011:
--- !u!114 &11400000
MonoBehaviour:
  m_ObjectHideFlags: 0
  m_CorrespondingSourceObject: {fileID: 0}
  m_PrefabInstance: {fileID: 0}
  m_PrefabAsset: {fileID: 0}
  m_GameObject: {fileID: 0}
  m_Enabled: 1
  m_EditorHideFlags: 0
  m_Script: {fileID: 11500000, guid: 96dbf161691748069b803a63e2e34701, type: 3}
  m_Name: GameSettings
  m_EditorClassIdentifier: 
  YDeadZone: 0.1
  XDeadZone: 0.1
  HomeColliderLayerMask:
    serializedVersion: 2
    m_Bits: 2048
  ScaredJumpY: 5
  ScaredJumpX: 1.5
  FlipDirectionGuard: {fileID: 11400000, guid: 62ad5c5d8b700184996c4bb133b57153, type: 2}
  MovementGuard: {fileID: 11400000, guid: 0ca83cd35c6140641b0cdf66c51ee429, type: 2}
  WalkingGuard: {fileID: 11400000, guid: 83ccfaab41edbbc4f9bfb6b9bbea7dce, type: 2}
  WalkingMaxSpeed: 10
  WalkingSensingThreshold: 0.35
  TimeToWalkingMaxSpeed: 0.5
  TimeToWalkingDeAccel: 0.4
  GroundedColliderLayerMask:
    serializedVersion: 2
    m_Bits: 1025
  GroundedMovementTreshold: 0.2
  GroundedUpwardVelocityTreshold: 0.5
  JumpTokenAmount: 1
  FallingGuard: {fileID: 11400000, guid: 2382034cf3301fe4db9cc178f0b17e17, type: 2}
  JumpGuard: {fileID: 11400000, guid: fec279e5fa94d174ba36a6f8d9c0ea03, type: 2}
  WallSlideJumpGuard: {fileID: 11400000, guid: 3dcd1085fb2c79b4f81a3e960ddc5aa3, type: 2}
  TimeToMaxJumpApex: 0.45
  TimeToMinJumpApex: 0.2
  TimeToFall: 1
  MaxJumpHeight: 7
  MinJumpHeight: 2
  MinJumpSlowDownGravityScale: 35
  CoyoteTime: 0.3
  JumpQueueTime: 0.2
  WalkingGravity: 1
  PlayerLayerMask:
    serializedVersion: 2
    m_Bits: 8
  PlatformsLayerMask:
    serializedVersion: 2
    m_Bits: 1024
  OnWallColliderLayerMask:
    serializedVersion: 2
    m_Bits: 512
  WallSlideGuard: {fileID: 11400000, guid: 3c096054c06a3b243a843f552ae95f7f, type: 2}
  WallSlideFromGroundTransitionGuard: {fileID: 11400000, guid: eeccd52b009809346ab3153eb34db872, type: 2}
  SlideClimbMovementTreshold: 0.3
  SlideClimbTopSpeed: 7
  SlideClimbTimeToMaxSpeed: 0.5
  SlideClimbTimeToStopFromMaxSpeed: 0.2
  SlideDownTopSpeed: 7
  SlideDownTimeToMaxSpeed: 0.2
  SlideDownTimeToStopFromMaxSpeed: 0.1
  JumpFX: {fileID: 8300000, guid: e8141f5b98ae8684faa0e5140e5bc4f5, type: 3}
  LandFX: {fileID: 8300000, guid: 8951f6802152d9a419927097f932ca85, type: 3}
  CrashFX: {fileID: 0}
  WalkFX: {fileID: 8300000, guid: f1baae0850eb39f4a84599a2c12a0c1b, type: 3}
  FlyFX: {fileID: 8300000, guid: aed05f79c90c8044e88438281826a925, type: 3}
  ChompItemFX: {fileID: 8300000, guid: b42ff9732dda2134494eb5818e3faed9, type: 3}
  DropItemsFX: {fileID: 8300000, guid: c06aad15c40c4724bb7a32404c6451ba, type: 3}
  WallClimbFX: {fileID: 8300000, guid: f1baae0850eb39f4a84599a2c12a0c1b, type: 3}
  WallSlideDownFX: {fileID: 8300000, guid: f1baae0850eb39f4a84599a2c12a0c1b, type: 3}
  ScaredFX: {fileID: 8300000, guid: ba11487a4ae6940499326e6d2ecc2ce7, type: 3}
  LoungeIntro: {fileID: 8300000, guid: a264da7516f24a6428cfea3ce77f64af, type: 3}
  LoungeLooping: {fileID: 8300000, guid: bc37240a618946545acff1427299a104, type: 3}
  AdventureIntro: {fileID: 8300000, guid: a264da7516f24a6428cfea3ce77f64af, type: 3}
  AdventureLooping: {fileID: 8300000, guid: 77274910c853c1446a3f6c6ba04d66b8, type: 3}
  DangerIntro: {fileID: 8300000, guid: a264da7516f24a6428cfea3ce77f64af, type: 3}
  DangerLooping: {fileID: 8300000, guid: 946a8ba97dfd1bc4b87885cec0c098eb, type: 3}
  Intermezzo: {fileID: 0}
